Subleq Pipelined/output/test_mmu_tb.vcd
$date
  Fri Jul 14 14:10:05 2017
$end
$version
  GHDL v0
$end
$timescale
  1 fs
$end
$var reg 1 ! clk $end
$var reg 1 " resetb $end
$var reg 1 # we_i $end
$var reg 1 $ en_i $end
$var reg 1 % we_d $end
$var reg 1 & en_d $end
$var reg 8 ' ben_i[7:0] $end
$var reg 8 ( ben_d[7:0] $end
$var reg 32 ) addr_i[31:0] $end
$var reg 32 * addr_d[31:0] $end
$var reg 64 + di_i[63:0] $end
$var reg 64 , di_d[63:0] $end
$var reg 64 - do_i[63:0] $end
$var reg 64 . do_d[63:0] $end
$scope module uut $end
$var reg 1 / clk $end
$var reg 1 0 resetb $end
$var reg 1 1 we_i $end
$var reg 1 2 en_i $end
$var reg 29 3 addr_i[31:3] $end
$var reg 8 4 ben_i[7:0] $end
$var reg 64 5 di_i[63:0] $end
$var reg 64 6 do_i[63:0] $end
$var reg 1 7 we_d $end
$var reg 1 8 en_d $end
$var reg 29 9 addr_d[31:3] $end
$var reg 8 : ben_d[7:0] $end
$var reg 64 ; di_d[63:0] $end
$var reg 64 < do_d[63:0] $end
$var reg 8 = wei_ram[7:0] $end
$var reg 8 > wed_ram[7:0] $end
$var reg 8 ? eni_ram[7:0] $end
$var reg 8 @ end_ram[7:0] $end
$comment dii is not handled $end
$comment did is not handled $end
$comment doi is not handled $end
$comment dod is not handled $end
$scope module ram0 $end
$var reg 1 A clk $end
$var reg 1 B awe $end
$var reg 1 C aen $end
$var reg 10 D aaddr[9:0] $end
$var reg 8 E adi[7:0] $end
$var reg 8 F ado[7:0] $end
$var reg 1 G bwe $end
$var reg 1 H ben $end
$var reg 10 I baddr[9:0] $end
$var reg 8 J bdi[7:0] $end
$var reg 8 K bdo[7:0] $end
$comment ram is not handled $end
$var reg 10 L read_addra[9:0] $end
$var reg 10 M read_addrb[9:0] $end
$upscope $end
$scope module ram1 $end
$var reg 1 N clk $end
$var reg 1 O awe $end
$var reg 1 P aen $end
$var reg 10 Q aaddr[9:0] $end
$var reg 8 R adi[7:0] $end
$var reg 8 S ado[7:0] $end
$var reg 1 T bwe $end
$var reg 1 U ben $end
$var reg 10 V baddr[9:0] $end
$var reg 8 W bdi[7:0] $end
$var reg 8 X bdo[7:0] $end
$comment ram is not handled $end
$var reg 10 Y read_addra[9:0] $end
$var reg 10 Z read_addrb[9:0] $end
$upscope $end
$scope module ram2 $end
$var reg 1 [ clk $end
$var reg 1 \ awe $end
$var reg 1 ] aen $end
$var reg 10 ^ aaddr[9:0] $end
$var reg 8 _ adi[7:0] $end
$var reg 8 ` ado[7:0] $end
$var reg 1 a bwe $end
$var reg 1 b ben $end
$var reg 10 c baddr[9:0] $end
$var reg 8 d bdi[7:0] $end
$var reg 8 e bdo[7:0] $end
$comment ram is not handled $end
$var reg 10 f read_addra[9:0] $end
$var reg 10 g read_addrb[9:0] $end
$upscope $end
$scope module ram3 $end
$var reg 1 h clk $end
$var reg 1 i awe $end
$var reg 1 j aen $end
$var reg 10 k aaddr[9:0] $end
$var reg 8 l adi[7:0] $end
$var reg 8 m ado[7:0] $end
$var reg 1 n bwe $end
$var reg 1 o ben $end
$var reg 10 p baddr[9:0] $end
$var reg 8 q bdi[7:0] $end
$var reg 8 r bdo[7:0] $end
$comment ram is not handled $end
$var reg 10 s read_addra[9:0] $end
$var reg 10 t read_addrb[9:0] $end
$upscope $end
$scope module ram4 $end
$var reg 1 u clk $end
$var reg 1 v awe $end
$var reg 1 w aen $end
$var reg 10 x aaddr[9:0] $end
$var reg 8 y adi[7:0] $end
$var reg 8 z ado[7:0] $end
$var reg 1 { bwe $end
$var reg 1 | ben $end
$var reg 10 } baddr[9:0] $end
$var reg 8 !" bdi[7:0] $end
$var reg 8 "" bdo[7:0] $end
$comment ram is not handled $end
$var reg 10 #" read_addra[9:0] $end
$var reg 10 $" read_addrb[9:0] $end
$upscope $end
$scope module ram5 $end
$var reg 1 %" clk $end
$var reg 1 &" awe $end
$var reg 1 '" aen $end
$var reg 10 (" aaddr[9:0] $end
$var reg 8 )" adi[7:0] $end
$var reg 8 *" ado[7:0] $end
$var reg 1 +" bwe $end
$var reg 1 ," ben $end
$var reg 10 -" baddr[9:0] $end
$var reg 8 ." bdi[7:0] $end
$var reg 8 /" bdo[7:0] $end
$comment ram is not handled $end
$var reg 10 0" read_addra[9:0] $end
$var reg 10 1" read_addrb[9:0] $end
$upscope $end
$scope module ram6 $end
$var reg 1 2" clk $end
$var reg 1 3" awe $end
$var reg 1 4" aen $end
$var reg 10 5" aaddr[9:0] $end
$var reg 8 6" adi[7:0] $end
$var reg 8 7" ado[7:0] $end
$var reg 1 8" bwe $end
$var reg 1 9" ben $end
$var reg 10 :" baddr[9:0] $end
$var reg 8 ;" bdi[7:0] $end
$var reg 8 <" bdo[7:0] $end
$comment ram is not handled $end
$var reg 10 =" read_addra[9:0] $end
$var reg 10 >" read_addrb[9:0] $end
$upscope $end
$scope module ram7 $end
$var reg 1 ?" clk $end
$var reg 1 @" awe $end
$var reg 1 A" aen $end
$var reg 10 B" aaddr[9:0] $end
$var reg 8 C" adi[7:0] $end
$var reg 8 D" ado[7:0] $end
$var reg 1 E" bwe $end
$var reg 1 F" ben $end
$var reg 10 G" baddr[9:0] $end
$var reg 8 H" bdi[7:0] $end
$var reg 8 I" bdo[7:0] $end
$comment ram is not handled $end
$var reg 10 J" read_addra[9:0] $end
$var reg 10 K" read_addrb[9:0] $end
$upscope $end
$upscope $end
$enddefinitions $end
#0
0!
U"
U#
U$
U%
U&
bUUUUUUUU '
bUUUUUUUU (
bUUUUUUUUUUUUUUUUUUUUUUUUUUUUUUUU )
bUUUUUUUUUUUUUUUUUUUUUUUUUUUUUUUU *
bUUUUUUUUUUUUUUUUUUUUUUUUUUUUUUUUUUUUUUUUUUUUUUUUUUUUUUUUUUUUUUUU +
bUUUUUUUUUUUUUUUUUUUUUUUUUUUUUUUUUUUUUUUUUUUUUUUUUUUUUUUUUUUUUUUU ,
b---------------------------------------------------------------- -
b---------------------------------------------------------------- .
0/
U0
U1
U2
bUUUUUUUUUUUUUUUUUUUUUUUUUUUUU 3
bUUUUUUUU 4
bUUUUUUUUUUUUUUUUUUUUUUUUUUUUUUUUUUUUUUUUUUUUUUUUUUUUUUUUUUUUUUUU 5
b---------------------------------------------------------------- 6
U7
U8
bUUUUUUUUUUUUUUUUUUUUUUUUUUUUU 9
bUUUUUUUU :
bUUUUUUUUUUUUUUUUUUUUUUUUUUUUUUUUUUUUUUUUUUUUUUUUUUUUUUUUUUUUUUUU ;
b---------------------------------------------------------------- <
b00000000 =
bUUUUUUUU >
b00000000 ?
b00000000 @
0A
0B
0C
bUUUUUUUUUU D
bUUUUUUUU E
bUUUUUUUU F
UG
0H
bUUUUUUUUUU I
bUUUUUUUU J
bUUUUUUUU K
bUUUUUUUUUU L
bUUUUUUUUUU M
0N
0O
0P
bUUUUUUUUUU Q
bUUUUUUUU R
bUUUUUUUU S
UT
0U
bUUUUUUUUUU V
bUUUUUUUU W
bUUUUUUUU X
bUUUUUUUUUU Y
bUUUUUUUUUU Z
0[
0\
0]
bUUUUUUUUUU ^
bUUUUUUUU _
bUUUUUUUU `
Ua
0b
bUUUUUUUUUU c
bUUUUUUUU d
bUUUUUUUU e
bUUUUUUUUUU f
bUUUUUUUUUU g
0h
0i
0j
bUUUUUUUUUU k
bUUUUUUUU l
bUUUUUUUU m
Un
0o
bUUUUUUUUUU p
bUUUUUUUU q
bUUUUUUUU r
bUUUUUUUUUU s
bUUUUUUUUUU t
0u
0v
0w
bUUUUUUUUUU x
bUUUUUUUU y
bUUUUUUUU z
U{
0|
bUUUUUUUUUU }
bUUUUUUUU !"
bUUUUUUUU ""
bUUUUUUUUUU #"
bUUUUUUUUUU $"
0%"
0&"
0'"
bUUUUUUUUUU ("
bUUUUUUUU )"
bUUUUUUUU *"
U+"
0,"
bUUUUUUUUUU -"
bUUUUUUUU ."
bUUUUUUUU /"
bUUUUUUUUUU 0"
bUUUUUUUUUU 1"
02"
03"
04"
bUUUUUUUUUU 5"
bUUUUUUUU 6"
bUUUUUUUU 7"
U8"
09"
bUUUUUUUUUU :"
bUUUUUUUU ;"
bUUUUUUUU <"
bUUUUUUUUUU ="
bUUUUUUUUUU >"
0?"
0@"
0A"
bUUUUUUUUUU B"
bUUUUUUUU C"
bUUUUUUUU D"
UE"
0F"
bUUUUUUUUUU G"
bUUUUUUUU H"
bUUUUUUUU I"
bUUUUUUUUUU J"
bUUUUUUUUUU K"
#5000000
1!
0"
0#
0$
0%
0&
b11111111 '
b11111111 (
1/
00
01
02
b11111111 4
07
08
b11111111 :
1A
1N
1[
1h
1u
1%"
12"
1?"
#10000000
0!
0/
0A
0N
0[
0h
0u
0%"
02"
0?"
#15000000
1!
1/
1A
1N
1[
1h
1u
1%"
12"
1?"
#20000000
0!
0/
0A
0N
0[
0h
0u
0%"
02"
0?"
#25000000
1!
1"
1/
10
1A
1N
1[
1h
1u
1%"
12"
1?"
#30000000
0!
0/
0A
0N
0[
0h
0u
0%"
02"
0?"
#35000000
1!
1#
1$
1&
b00001111 '
b00000000 (
b00000000000000000000000000000000 )
b00000000000000000000000000000000 *
b0000111111110001110011101100101011111110101110101101110100000110 +
bUUUUUUUUUUUUUUUUUUUUUUUUUUUUUUUUUUUUUUUUUUUUUUUUUUUUUUUUUUUUUUUU -
bUUUUUUUUUUUUUUUUUUUUUUUUUUUUUUUUUUUUUUUUUUUUUUUUUUUUUUUUUUUUUUUU .
1/
11
12
b00000000000000000000000000000 3
b00001111 4
b0000111111110001110011101100101011111110101110101101110100000110 5
bUUUUUUUUUUUUUUUUUUUUUUUUUUUUUUUUUUUUUUUUUUUUUUUUUUUUUUUUUUUUUUUU 6
18
b00000000000000000000000000000 9
b00000000 :
bUUUUUUUUUUUUUUUUUUUUUUUUUUUUUUUUUUUUUUUUUUUUUUUUUUUUUUUUUUUUUUUU <
b11110000 =
b00000000 >
b11110000 ?
b11111111 @
1A
b0000000000 D
b00000110 E
0G
1H
b0000000000 I
1N
b0000000000 Q
b11011101 R
0T
1U
b0000000000 V
1[
b0000000000 ^
b10111010 _
0a
1b
b0000000000 c
1h
b0000000000 k
b11111110 l
0n
1o
b0000000000 p
1u
1v
1w
b0000000000 x
b11001010 y
0{
1|
b0000000000 }
1%"
1&"
1'"
b0000000000 ("
b11001110 )"
0+"
1,"
b0000000000 -"
12"
13"
14"
b0000000000 5"
b11110001 6"
08"
19"
b0000000000 :"
1?"
1@"
1A"
b0000000000 B"
b00001111 C"
0E"
1F"
b0000000000 G"
#40000000
0!
0/
0A
0N
0[
0h
0u
0%"
02"
0?"
#45000000
1!
b00000000000000000000000000001000 )
b00000000000000000000000000001000 *
b00001111111100011100111011001010UUUUUUUUUUUUUUUUUUUUUUUUUUUUUUUU -
b00001111111100011100111011001010UUUUUUUUUUUUUUUUUUUUUUUUUUUUUUUU .
1/
b00000000000000000000000000001 3
b00001111111100011100111011001010UUUUUUUUUUUUUUUUUUUUUUUUUUUUUUUU 6
b00000000000000000000000000001 9
b00001111111100011100111011001010UUUUUUUUUUUUUUUUUUUUUUUUUUUUUUUU <
1A
b0000000001 D
b0000000001 I
b0000000000 M
1N
b0000000001 Q
b0000000001 V
b0000000000 Z
1[
b0000000001 ^
b0000000001 c
b0000000000 g
1h
b0000000001 k
b0000000001 p
b0000000000 t
1u
b0000000001 x
b11001010 z
b0000000001 }
b11001010 ""
b0000000000 #"
b0000000000 $"
1%"
b0000000001 ("
b11001110 *"
b0000000001 -"
b11001110 /"
b0000000000 0"
b0000000000 1"
12"
b0000000001 5"
b11110001 7"
b0000000001 :"
b11110001 <"
b0000000000 ="
b0000000000 >"
1?"
b0000000001 B"
b00001111 D"
b0000000001 G"
b00001111 I"
b0000000000 J"
b0000000000 K"
#50000000
0!
0/
0A
0N
0[
0h
0u
0%"
02"
0?"
#55000000
1!
b00000000000000000000000000010000 )
b00000000000000000000000000010000 *
1/
b00000000000000000000000000010 3
b00001111111100011100111011001010UUUUUUUUUUUUUUUUUUUUUUUUUUUUUUUU 6
b00000000000000000000000000010 9
b00001111111100011100111011001010UUUUUUUUUUUUUUUUUUUUUUUUUUUUUUUU <
1A
b0000000010 D
b0000000010 I
b0000000001 M
1N
b0000000010 Q
b0000000010 V
b0000000001 Z
1[
b0000000010 ^
b0000000010 c
b0000000001 g
1h
b0000000010 k
b0000000010 p
b0000000001 t
1u
b0000000010 x
b0000000010 }
b0000000001 #"
b0000000001 $"
1%"
b0000000010 ("
b0000000010 -"
b0000000001 0"
b0000000001 1"
12"
b0000000010 5"
b0000000010 :"
b0000000001 ="
b0000000001 >"
1?"
b0000000010 B"
b0000000010 G"
b0000000001 J"
b0000000001 K"
#60000000
0!
0/
0A
0N
0[
0h
0u
0%"
02"
0?"
#65000000
1!
b00000000000000000000000000011000 )
b00000000000000000000000000011000 *
1/
b00000000000000000000000000011 3
b00001111111100011100111011001010UUUUUUUUUUUUUUUUUUUUUUUUUUUUUUUU 6
b00000000000000000000000000011 9
b00001111111100011100111011001010UUUUUUUUUUUUUUUUUUUUUUUUUUUUUUUU <
1A
b0000000011 D
b0000000011 I
b0000000010 M
1N
b0000000011 Q
b0000000011 V
b0000000010 Z
1[
b0000000011 ^
b0000000011 c
b0000000010 g
1h
b0000000011 k
b0000000011 p
b0000000010 t
1u
b0000000011 x
b0000000011 }
b0000000010 #"
b0000000010 $"
1%"
b0000000011 ("
b0000000011 -"
b0000000010 0"
b0000000010 1"
12"
b0000000011 5"
b0000000011 :"
b0000000010 ="
b0000000010 >"
1?"
b0000000011 B"
b0000000011 G"
b0000000010 J"
b0000000010 K"
#70000000
0!
0/
0A
0N
0[
0h
0u
0%"
02"
0?"
#75000000
1!
b00000000000000000000000000100000 )
b00000000000000000000000000100000 *
1/
b00000000000000000000000000100 3
b00001111111100011100111011001010UUUUUUUUUUUUUUUUUUUUUUUUUUUUUUUU 6
b00000000000000000000000000100 9
b00001111111100011100111011001010UUUUUUUUUUUUUUUUUUUUUUUUUUUUUUUU <
1A
b0000000100 D
b0000000100 I
b0000000011 M
1N
b0000000100 Q
b0000000100 V
b0000000011 Z
1[
b0000000100 ^
b0000000100 c
b0000000011 g
1h
b0000000100 k
b0000000100 p
b0000000011 t
1u
b0000000100 x
b0000000100 }
b0000000011 #"
b0000000011 $"
1%"
b0000000100 ("
b0000000100 -"
b0000000011 0"
b0000000011 1"
12"
b0000000100 5"
b0000000100 :"
b0000000011 ="
b0000000011 >"
1?"
b0000000100 B"
b0000000100 G"
b0000000011 J"
b0000000011 K"
#80000000
0!
0/
0A
0N
0[
0h
0u
0%"
02"
0?"
#85000000
1!
b00000000000000000000000000101000 )
b00000000000000000000000000101000 *
1/
b00000000000000000000000000101 3
b00001111111100011100111011001010UUUUUUUUUUUUUUUUUUUUUUUUUUUUUUUU 6
b00000000000000000000000000101 9
b00001111111100011100111011001010UUUUUUUUUUUUUUUUUUUUUUUUUUUUUUUU <
1A
b0000000101 D
b0000000101 I
b0000000100 M
1N
b0000000101 Q
b0000000101 V
b0000000100 Z
1[
b0000000101 ^
b0000000101 c
b0000000100 g
1h
b0000000101 k
b0000000101 p
b0000000100 t
1u
b0000000101 x
b0000000101 }
b0000000100 #"
b0000000100 $"
1%"
b0000000101 ("
b0000000101 -"
b0000000100 0"
b0000000100 1"
12"
b0000000101 5"
b0000000101 :"
b0000000100 ="
b0000000100 >"
1?"
b0000000101 B"
b0000000101 G"
b0000000100 J"
b0000000100 K"
#90000000
0!
0/
0A
0N
0[
0h
0u
0%"
02"
0?"
#95000000
1!
b00000000000000000000000000110000 )
b00000000000000000000000000110000 *
1/
b00000000000000000000000000110 3
b00001111111100011100111011001010UUUUUUUUUUUUUUUUUUUUUUUUUUUUUUUU 6
b00000000000000000000000000110 9
b00001111111100011100111011001010UUUUUUUUUUUUUUUUUUUUUUUUUUUUUUUU <
1A
b0000000110 D
b0000000110 I
b0000000101 M
1N
b0000000110 Q
b0000000110 V
b0000000101 Z
1[
b0000000110 ^
b0000000110 c
b0000000101 g
1h
b0000000110 k
b0000000110 p
b0000000101 t
1u
b0000000110 x
b0000000110 }
b0000000101 #"
b0000000101 $"
1%"
b0000000110 ("
b0000000110 -"
b0000000101 0"
b0000000101 1"
12"
b0000000110 5"
b0000000110 :"
b0000000101 ="
b0000000101 >"
1?"
b0000000110 B"
b0000000110 G"
b0000000101 J"
b0000000101 K"
#100000000
0!
0/
0A
0N
0[
0h
0u
0%"
02"
0?"
#105000000
1!
b00000000000000000000000000111000 )
b00000000000000000000000000111000 *
1/
b00000000000000000000000000111 3
b00001111111100011100111011001010UUUUUUUUUUUUUUUUUUUUUUUUUUUUUUUU 6
b00000000000000000000000000111 9
b00001111111100011100111011001010UUUUUUUUUUUUUUUUUUUUUUUUUUUUUUUU <
1A
b0000000111 D
b0000000111 I
b0000000110 M
1N
b0000000111 Q
b0000000111 V
b0000000110 Z
1[
b0000000111 ^
b0000000111 c
b0000000110 g
1h
b0000000111 k
b0000000111 p
b0000000110 t
1u
b0000000111 x
b0000000111 }
b0000000110 #"
b0000000110 $"
1%"
b0000000111 ("
b0000000111 -"
b0000000110 0"
b0000000110 1"
12"
b0000000111 5"
b0000000111 :"
b0000000110 ="
b0000000110 >"
1?"
b0000000111 B"
b0000000111 G"
b0000000110 J"
b0000000110 K"
#110000000
0!
0/
0A
0N
0[
0h
0u
0%"
02"
0?"
#115000000
1!
b00000000000000000000000001000000 )
b00000000000000000000000001000000 *
1/
b00000000000000000000000001000 3
b00001111111100011100111011001010UUUUUUUUUUUUUUUUUUUUUUUUUUUUUUUU 6
b00000000000000000000000001000 9
b00001111111100011100111011001010UUUUUUUUUUUUUUUUUUUUUUUUUUUUUUUU <
1A
b0000001000 D
b0000001000 I
b0000000111 M
1N
b0000001000 Q
b0000001000 V
b0000000111 Z
1[
b0000001000 ^
b0000001000 c
b0000000111 g
1h
b0000001000 k
b0000001000 p
b0000000111 t
1u
b0000001000 x
b0000001000 }
b0000000111 #"
b0000000111 $"
1%"
b0000001000 ("
b0000001000 -"
b0000000111 0"
b0000000111 1"
12"
b0000001000 5"
b0000001000 :"
b0000000111 ="
b0000000111 >"
1?"
b0000001000 B"
b0000001000 G"
b0000000111 J"
b0000000111 K"
#120000000
0!
0/
0A
0N
0[
0h
0u
0%"
02"
0?"
#125000000
1!
b00000000000000000000000001001000 )
b00000000000000000000000001001000 *
1/
b00000000000000000000000001001 3
b00001111111100011100111011001010UUUUUUUUUUUUUUUUUUUUUUUUUUUUUUUU 6
b00000000000000000000000001001 9
b00001111111100011100111011001010UUUUUUUUUUUUUUUUUUUUUUUUUUUUUUUU <
1A
b0000001001 D
b0000001001 I
b0000001000 M
1N
b0000001001 Q
b0000001001 V
b0000001000 Z
1[
b0000001001 ^
b0000001001 c
b0000001000 g
1h
b0000001001 k
b0000001001 p
b0000001000 t
1u
b0000001001 x
b0000001001 }
b0000001000 #"
b0000001000 $"
1%"
b0000001001 ("
b0000001001 -"
b0000001000 0"
b0000001000 1"
12"
b0000001001 5"
b0000001001 :"
b0000001000 ="
b0000001000 >"
1?"
b0000001001 B"
b0000001001 G"
b0000001000 J"
b0000001000 K"
#130000000
0!
0/
0A
0N
0[
0h
0u
0%"
02"
0?"
#135000000
1!
b00000000000000000000000001010000 )
b00000000000000000000000001010000 *
1/
b00000000000000000000000001010 3
b00001111111100011100111011001010UUUUUUUUUUUUUUUUUUUUUUUUUUUUUUUU 6
b00000000000000000000000001010 9
b00001111111100011100111011001010UUUUUUUUUUUUUUUUUUUUUUUUUUUUUUUU <
1A
b0000001010 D
b0000001010 I
b0000001001 M
1N
b0000001010 Q
b0000001010 V
b0000001001 Z
1[
b0000001010 ^
b0000001010 c
b0000001001 g
1h
b0000001010 k
b0000001010 p
b0000001001 t
1u
b0000001010 x
b0000001010 }
b0000001001 #"
b0000001001 $"
1%"
b0000001010 ("
b0000001010 -"
b0000001001 0"
b0000001001 1"
12"
b0000001010 5"
b0000001010 :"
b0000001001 ="
b0000001001 >"
1?"
b0000001010 B"
b0000001010 G"
b0000001001 J"
b0000001001 K"
#140000000
0!
0/
0A
0N
0[
0h
0u
0%"
02"
0?"
#145000000
1!
b00000000000000000000000001011000 )
b00000000000000000000000001011000 *
1/
b00000000000000000000000001011 3
b00001111111100011100111011001010UUUUUUUUUUUUUUUUUUUUUUUUUUUUUUUU 6
b00000000000000000000000001011 9
b00001111111100011100111011001010UUUUUUUUUUUUUUUUUUUUUUUUUUUUUUUU <
1A
b0000001011 D
b0000001011 I
b0000001010 M
1N
b0000001011 Q
b0000001011 V
b0000001010 Z
1[
b0000001011 ^
b0000001011 c
b0000001010 g
1h
b0000001011 k
b0000001011 p
b0000001010 t
1u
b0000001011 x
b0000001011 }
b0000001010 #"
b0000001010 $"
1%"
b0000001011 ("
b0000001011 -"
b0000001010 0"
b0000001010 1"
12"
b0000001011 5"
b0000001011 :"
b0000001010 ="
b0000001010 >"
1?"
b0000001011 B"
b0000001011 G"
b0000001010 J"
b0000001010 K"
#150000000
0!
0/
0A
0N
0[
0h
0u
0%"
02"
0?"
#155000000
1!
b00000000000000000000000001100000 )
b00000000000000000000000001100000 *
1/
b00000000000000000000000001100 3
b00001111111100011100111011001010UUUUUUUUUUUUUUUUUUUUUUUUUUUUUUUU 6
b00000000000000000000000001100 9
b00001111111100011100111011001010UUUUUUUUUUUUUUUUUUUUUUUUUUUUUUUU <
1A
b0000001100 D
b0000001100 I
b0000001011 M
1N
b0000001100 Q
b0000001100 V
b0000001011 Z
1[
b0000001100 ^
b0000001100 c
b0000001011 g
1h
b0000001100 k
b0000001100 p
b0000001011 t
1u
b0000001100 x
b0000001100 }
b0000001011 #"
b0000001011 $"
1%"
b0000001100 ("
b0000001100 -"
b0000001011 0"
b0000001011 1"
12"
b0000001100 5"
b0000001100 :"
b0000001011 ="
b0000001011 >"
1?"
b0000001100 B"
b0000001100 G"
b0000001011 J"
b0000001011 K"
#160000000
0!
0/
0A
0N
0[
0h
0u
0%"
02"
0?"
#165000000
1!
b00000000000000000000000001101000 )
b00000000000000000000000001101000 *
1/
b00000000000000000000000001101 3
b00001111111100011100111011001010UUUUUUUUUUUUUUUUUUUUUUUUUUUUUUUU 6
b00000000000000000000000001101 9
b00001111111100011100111011001010UUUUUUUUUUUUUUUUUUUUUUUUUUUUUUUU <
1A
b0000001101 D
b0000001101 I
b0000001100 M
1N
b0000001101 Q
b0000001101 V
b0000001100 Z
1[
b0000001101 ^
b0000001101 c
b0000001100 g
1h
b0000001101 k
b0000001101 p
b0000001100 t
1u
b0000001101 x
b0000001101 }
b0000001100 #"
b0000001100 $"
1%"
b0000001101 ("
b0000001101 -"
b0000001100 0"
b0000001100 1"
12"
b0000001101 5"
b0000001101 :"
b0000001100 ="
b0000001100 >"
1?"
b0000001101 B"
b0000001101 G"
b0000001100 J"
b0000001100 K"
#170000000
0!
0/
0A
0N
0[
0h
0u
0%"
02"
0?"
#175000000
1!
b00000000000000000000000001110000 )
b00000000000000000000000001110000 *
1/
b00000000000000000000000001110 3
b00001111111100011100111011001010UUUUUUUUUUUUUUUUUUUUUUUUUUUUUUUU 6
b00000000000000000000000001110 9
b00001111111100011100111011001010UUUUUUUUUUUUUUUUUUUUUUUUUUUUUUUU <
1A
b0000001110 D
b0000001110 I
b0000001101 M
1N
b0000001110 Q
b0000001110 V
b0000001101 Z
1[
b0000001110 ^
b0000001110 c
b0000001101 g
1h
b0000001110 k
b0000001110 p
b0000001101 t
1u
b0000001110 x
b0000001110 }
b0000001101 #"
b0000001101 $"
1%"
b0000001110 ("
b0000001110 -"
b0000001101 0"
b0000001101 1"
12"
b0000001110 5"
b0000001110 :"
b0000001101 ="
b0000001101 >"
1?"
b0000001110 B"
b0000001110 G"
b0000001101 J"
b0000001101 K"
#180000000
0!
0/
0A
0N
0[
0h
0u
0%"
02"
0?"
#185000000
1!
b00000000000000000000000001111000 )
b00000000000000000000000001111000 *
1/
b00000000000000000000000001111 3
b00001111111100011100111011001010UUUUUUUUUUUUUUUUUUUUUUUUUUUUUUUU 6
b00000000000000000000000001111 9
b00001111111100011100111011001010UUUUUUUUUUUUUUUUUUUUUUUUUUUUUUUU <
1A
b0000001111 D
b0000001111 I
b0000001110 M
1N
b0000001111 Q
b0000001111 V
b0000001110 Z
1[
b0000001111 ^
b0000001111 c
b0000001110 g
1h
b0000001111 k
b0000001111 p
b0000001110 t
1u
b0000001111 x
b0000001111 }
b0000001110 #"
b0000001110 $"
1%"
b0000001111 ("
b0000001111 -"
b0000001110 0"
b0000001110 1"
12"
b0000001111 5"
b0000001111 :"
b0000001110 ="
b0000001110 >"
1?"
b0000001111 B"
b0000001111 G"
b0000001110 J"
b0000001110 K"
#190000000
0!
0/
0A
0N
0[
0h
0u
0%"
02"
0?"
#195000000
1!
1/
1A
b0000001111 M
1N
b0000001111 Z
1[
b0000001111 g
1h
b0000001111 t
1u
b0000001111 #"
b0000001111 $"
1%"
b0000001111 0"
b0000001111 1"
12"
b0000001111 ="
b0000001111 >"
1?"
b0000001111 J"
b0000001111 K"
