Subleq Pipelined/output/test_mmu_tb.vcd
$date
  Mon Jul 10 16:53:26 2017
$end
$version
  GHDL v0
$end
$timescale
  1 fs
$end
$var reg 1 ! clk_tb $end
$var reg 1 " resetb_tb $end
$var reg 1 # we_tb $end
$var reg 1 $ en_tb $end
$var reg 1 % be7n_tb $end
$var reg 1 & be6n_tb $end
$var reg 1 ' be5n_tb $end
$var reg 1 ( be4n_tb $end
$var reg 1 ) be3n_tb $end
$var reg 1 * be2n_tb $end
$var reg 1 + be1n_tb $end
$var reg 1 , be0n_tb $end
$var reg 32 - addr_tb[31:0] $end
$var reg 64 . di_tb[63:0] $end
$var reg 64 / do_tb[63:0] $end
$scope module uut $end
$var reg 1 0 clk $end
$var reg 1 1 resetb $end
$var reg 1 2 we $end
$var reg 1 3 en $end
$var reg 29 4 addr[31:3] $end
$var reg 1 5 be7n $end
$var reg 1 6 be6n $end
$var reg 1 7 be5n $end
$var reg 1 8 be4n $end
$var reg 1 9 be3n $end
$var reg 1 : be2n $end
$var reg 1 ; be1n $end
$var reg 1 < be0n $end
$var reg 64 = di[63:0] $end
$var reg 64 > do[63:0] $end
$var reg 1 ? we_ram0 $end
$var reg 1 @ en_ram0 $end
$var reg 1 A we_ram1 $end
$var reg 1 B en_ram1 $end
$var reg 1 C we_ram2 $end
$var reg 1 D en_ram2 $end
$var reg 1 E we_ram3 $end
$var reg 1 F en_ram3 $end
$var reg 1 G we_ram4 $end
$var reg 1 H en_ram4 $end
$var reg 1 I we_ram5 $end
$var reg 1 J en_ram5 $end
$var reg 1 K we_ram6 $end
$var reg 1 L en_ram6 $end
$var reg 1 M we_ram7 $end
$var reg 1 N en_ram7 $end
$var reg 8 O di_ram0[7:0] $end
$var reg 8 P di_ram1[7:0] $end
$var reg 8 Q di_ram2[7:0] $end
$var reg 8 R di_ram3[7:0] $end
$var reg 8 S di_ram4[7:0] $end
$var reg 8 T di_ram5[7:0] $end
$var reg 8 U di_ram6[7:0] $end
$var reg 8 V di_ram7[7:0] $end
$var reg 8 W do_ram0[7:0] $end
$var reg 8 X do_ram1[7:0] $end
$var reg 8 Y do_ram2[7:0] $end
$var reg 8 Z do_ram3[7:0] $end
$var reg 8 [ do_ram4[7:0] $end
$var reg 8 \ do_ram5[7:0] $end
$var reg 8 ] do_ram6[7:0] $end
$var reg 8 ^ do_ram7[7:0] $end
$var reg 64 _ do_ram[63:0] $end
$scope module ram0 $end
$var reg 1 ` clk $end
$var reg 1 a we $end
$var reg 1 b en $end
$var reg 10 c addr[9:0] $end
$var reg 8 d di[7:0] $end
$var reg 8 e do[7:0] $end
$comment data is not handled $end
$upscope $end
$scope module ram1 $end
$var reg 1 f clk $end
$var reg 1 g we $end
$var reg 1 h en $end
$var reg 10 i addr[9:0] $end
$var reg 8 j di[7:0] $end
$var reg 8 k do[7:0] $end
$comment data is not handled $end
$upscope $end
$scope module ram2 $end
$var reg 1 l clk $end
$var reg 1 m we $end
$var reg 1 n en $end
$var reg 10 o addr[9:0] $end
$var reg 8 p di[7:0] $end
$var reg 8 q do[7:0] $end
$comment data is not handled $end
$upscope $end
$scope module ram3 $end
$var reg 1 r clk $end
$var reg 1 s we $end
$var reg 1 t en $end
$var reg 10 u addr[9:0] $end
$var reg 8 v di[7:0] $end
$var reg 8 w do[7:0] $end
$comment data is not handled $end
$upscope $end
$scope module ram4 $end
$var reg 1 x clk $end
$var reg 1 y we $end
$var reg 1 z en $end
$var reg 10 { addr[9:0] $end
$var reg 8 | di[7:0] $end
$var reg 8 } do[7:0] $end
$comment data is not handled $end
$upscope $end
$scope module ram5 $end
$var reg 1 !" clk $end
$var reg 1 "" we $end
$var reg 1 #" en $end
$var reg 10 $" addr[9:0] $end
$var reg 8 %" di[7:0] $end
$var reg 8 &" do[7:0] $end
$comment data is not handled $end
$upscope $end
$scope module ram6 $end
$var reg 1 '" clk $end
$var reg 1 (" we $end
$var reg 1 )" en $end
$var reg 10 *" addr[9:0] $end
$var reg 8 +" di[7:0] $end
$var reg 8 ," do[7:0] $end
$comment data is not handled $end
$upscope $end
$scope module ram7 $end
$var reg 1 -" clk $end
$var reg 1 ." we $end
$var reg 1 /" en $end
$var reg 10 0" addr[9:0] $end
$var reg 8 1" di[7:0] $end
$var reg 8 2" do[7:0] $end
$comment data is not handled $end
$upscope $end
$upscope $end
$enddefinitions $end
#0
0!
U"
0#
0$
0%
0&
0'
0(
0)
0*
0+
0,
b-------------------------------- -
b---------------------------------------------------------------- .
b---------------------------------------------------------------- /
00
U1
02
03
b----------------------------- 4
05
06
07
08
09
0:
0;
0<
b---------------------------------------------------------------- =
b---------------------------------------------------------------- >
0?
0@
0A
0B
0C
0D
0E
0F
0G
0H
0I
0J
0K
0L
0M
0N
b-------- O
b-------- P
b-------- Q
b-------- R
b-------- S
b-------- T
b-------- U
b-------- V
bUUUUUUUU W
bUUUUUUUU X
bUUUUUUUU Y
bUUUUUUUU Z
bUUUUUUUU [
bUUUUUUUU \
bUUUUUUUU ]
bUUUUUUUU ^
bUUUUUUUUUUUUUUUUUUUUUUUUUUUUUUUUUUUUUUUUUUUUUUUUUUUUUUUUUUUUUUUU _
0`
0a
0b
b---------- c
b-------- d
bUUUUUUUU e
0f
0g
0h
b---------- i
b-------- j
bUUUUUUUU k
0l
0m
0n
b---------- o
b-------- p
bUUUUUUUU q
0r
0s
0t
b---------- u
b-------- v
bUUUUUUUU w
0x
0y
0z
b---------- {
b-------- |
bUUUUUUUU }
0!"
0""
0#"
b---------- $"
b-------- %"
bUUUUUUUU &"
0'"
0("
0)"
b---------- *"
b-------- +"
bUUUUUUUU ,"
0-"
0."
0/"
b---------- 0"
b-------- 1"
bUUUUUUUU 2"
#5000000
1!
0"
10
01
1`
1f
1l
1r
1x
1!"
1'"
1-"
#10000000
0!
00
0`
0f
0l
0r
0x
0!"
0'"
0-"
#15000000
1!
10
1`
1f
1l
1r
1x
1!"
1'"
1-"
#20000000
0!
00
0`
0f
0l
0r
0x
0!"
0'"
0-"
#25000000
1!
1"
10
11
1`
1f
1l
1r
1x
1!"
1'"
1-"
#30000000
0!
00
0`
0f
0l
0r
0x
0!"
0'"
0-"
#35000000
1!
1#
1$
b00000000000000000000000000000000 -
b1101111010101101101111101110111110111010101011011100000011011110 .
bUUUUUUUUUUUUUUUUUUUUUUUUUUUUUUUUUUUUUUUUUUUUUUUUUUUUUUUUUUUUUUUU /
10
12
13
b00000000000000000000000000000 4
b1101111010101101101111101110111110111010101011011100000011011110 =
bUUUUUUUUUUUUUUUUUUUUUUUUUUUUUUUUUUUUUUUUUUUUUUUUUUUUUUUUUUUUUUUU >
1?
1@
1A
1B
1C
1D
1E
1F
1G
1H
1I
1J
1K
1L
1M
1N
b11011110 O
b11000000 P
b10101101 Q
b10111010 R
b11101111 S
b10111110 T
b10101101 U
b11011110 V
1`
1a
1b
b0000000000 c
b11011110 d
1f
1g
1h
b0000000000 i
b11000000 j
1l
1m
1n
b0000000000 o
b10101101 p
1r
1s
1t
b0000000000 u
b10111010 v
1x
1y
1z
b0000000000 {
b11101111 |
1!"
1""
1#"
b0000000000 $"
b10111110 %"
1'"
1("
1)"
b0000000000 *"
b10101101 +"
1-"
1."
1/"
b0000000000 0"
b11011110 1"
#40000000
0!
00
0`
0f
0l
0r
0x
0!"
0'"
0-"
#45000000
1!
b00000000000000000000000000001000 -
b1101111010101101101111101110111110111010101011011100000011011110 /
10
b00000000000000000000000000001 4
b1101111010101101101111101110111110111010101011011100000011011110 >
b11011110 W
b11000000 X
b10101101 Y
b10111010 Z
b11101111 [
b10111110 \
b10101101 ]
b11011110 ^
b1101111010101101101111101110111110111010101011011100000011011110 _
1`
b0000000001 c
b11011110 e
1f
b0000000001 i
b11000000 k
1l
b0000000001 o
b10101101 q
1r
b0000000001 u
b10111010 w
1x
b0000000001 {
b11101111 }
1!"
b0000000001 $"
b10111110 &"
1'"
b0000000001 *"
b10101101 ,"
1-"
b0000000001 0"
b11011110 2"
#50000000
0!
00
0`
0f
0l
0r
0x
0!"
0'"
0-"
#55000000
1!
b00000000000000000000000000010000 -
10
b00000000000000000000000000010 4
b1101111010101101101111101110111110111010101011011100000011011110 >
1`
b0000000010 c
1f
b0000000010 i
1l
b0000000010 o
1r
b0000000010 u
1x
b0000000010 {
1!"
b0000000010 $"
1'"
b0000000010 *"
1-"
b0000000010 0"
#60000000
0!
00
0`
0f
0l
0r
0x
0!"
0'"
0-"
#65000000
1!
b00000000000000000000000000011000 -
10
b00000000000000000000000000011 4
b1101111010101101101111101110111110111010101011011100000011011110 >
1`
b0000000011 c
1f
b0000000011 i
1l
b0000000011 o
1r
b0000000011 u
1x
b0000000011 {
1!"
b0000000011 $"
1'"
b0000000011 *"
1-"
b0000000011 0"
#70000000
0!
00
0`
0f
0l
0r
0x
0!"
0'"
0-"
#75000000
1!
b00000000000000000000000000100000 -
10
b00000000000000000000000000100 4
b1101111010101101101111101110111110111010101011011100000011011110 >
1`
b0000000100 c
1f
b0000000100 i
1l
b0000000100 o
1r
b0000000100 u
1x
b0000000100 {
1!"
b0000000100 $"
1'"
b0000000100 *"
1-"
b0000000100 0"
#80000000
0!
00
0`
0f
0l
0r
0x
0!"
0'"
0-"
#85000000
1!
b00000000000000000000000000101000 -
10
b00000000000000000000000000101 4
b1101111010101101101111101110111110111010101011011100000011011110 >
1`
b0000000101 c
1f
b0000000101 i
1l
b0000000101 o
1r
b0000000101 u
1x
b0000000101 {
1!"
b0000000101 $"
1'"
b0000000101 *"
1-"
b0000000101 0"
#90000000
0!
00
0`
0f
0l
0r
0x
0!"
0'"
0-"
#95000000
1!
b00000000000000000000000000110000 -
10
b00000000000000000000000000110 4
b1101111010101101101111101110111110111010101011011100000011011110 >
1`
b0000000110 c
1f
b0000000110 i
1l
b0000000110 o
1r
b0000000110 u
1x
b0000000110 {
1!"
b0000000110 $"
1'"
b0000000110 *"
1-"
b0000000110 0"
#100000000
0!
00
0`
0f
0l
0r
0x
0!"
0'"
0-"
#105000000
1!
b00000000000000000000000000111000 -
10
b00000000000000000000000000111 4
b1101111010101101101111101110111110111010101011011100000011011110 >
1`
b0000000111 c
1f
b0000000111 i
1l
b0000000111 o
1r
b0000000111 u
1x
b0000000111 {
1!"
b0000000111 $"
1'"
b0000000111 *"
1-"
b0000000111 0"
#110000000
0!
00
0`
0f
0l
0r
0x
0!"
0'"
0-"
#115000000
1!
b00000000000000000000000001000000 -
10
b00000000000000000000000001000 4
b1101111010101101101111101110111110111010101011011100000011011110 >
1`
b0000001000 c
1f
b0000001000 i
1l
b0000001000 o
1r
b0000001000 u
1x
b0000001000 {
1!"
b0000001000 $"
1'"
b0000001000 *"
1-"
b0000001000 0"
#120000000
0!
00
0`
0f
0l
0r
0x
0!"
0'"
0-"
#125000000
1!
b00000000000000000000000001001000 -
10
b00000000000000000000000001001 4
b1101111010101101101111101110111110111010101011011100000011011110 >
1`
b0000001001 c
1f
b0000001001 i
1l
b0000001001 o
1r
b0000001001 u
1x
b0000001001 {
1!"
b0000001001 $"
1'"
b0000001001 *"
1-"
b0000001001 0"
#130000000
0!
00
0`
0f
0l
0r
0x
0!"
0'"
0-"
#135000000
1!
b00000000000000000000000001010000 -
10
b00000000000000000000000001010 4
b1101111010101101101111101110111110111010101011011100000011011110 >
1`
b0000001010 c
1f
b0000001010 i
1l
b0000001010 o
1r
b0000001010 u
1x
b0000001010 {
1!"
b0000001010 $"
1'"
b0000001010 *"
1-"
b0000001010 0"
#140000000
0!
00
0`
0f
0l
0r
0x
0!"
0'"
0-"
#145000000
1!
b00000000000000000000000001011000 -
10
b00000000000000000000000001011 4
b1101111010101101101111101110111110111010101011011100000011011110 >
1`
b0000001011 c
1f
b0000001011 i
1l
b0000001011 o
1r
b0000001011 u
1x
b0000001011 {
1!"
b0000001011 $"
1'"
b0000001011 *"
1-"
b0000001011 0"
#150000000
0!
00
0`
0f
0l
0r
0x
0!"
0'"
0-"
#155000000
1!
b00000000000000000000000001100000 -
10
b00000000000000000000000001100 4
b1101111010101101101111101110111110111010101011011100000011011110 >
1`
b0000001100 c
1f
b0000001100 i
1l
b0000001100 o
1r
b0000001100 u
1x
b0000001100 {
1!"
b0000001100 $"
1'"
b0000001100 *"
1-"
b0000001100 0"
#160000000
0!
00
0`
0f
0l
0r
0x
0!"
0'"
0-"
#165000000
1!
b00000000000000000000000001101000 -
10
b00000000000000000000000001101 4
b1101111010101101101111101110111110111010101011011100000011011110 >
1`
b0000001101 c
1f
b0000001101 i
1l
b0000001101 o
1r
b0000001101 u
1x
b0000001101 {
1!"
b0000001101 $"
1'"
b0000001101 *"
1-"
b0000001101 0"
#170000000
0!
00
0`
0f
0l
0r
0x
0!"
0'"
0-"
#175000000
1!
b00000000000000000000000001110000 -
10
b00000000000000000000000001110 4
b1101111010101101101111101110111110111010101011011100000011011110 >
1`
b0000001110 c
1f
b0000001110 i
1l
b0000001110 o
1r
b0000001110 u
1x
b0000001110 {
1!"
b0000001110 $"
1'"
b0000001110 *"
1-"
b0000001110 0"
#180000000
0!
00
0`
0f
0l
0r
0x
0!"
0'"
0-"
#185000000
1!
b00000000000000000000000001111000 -
10
b00000000000000000000000001111 4
b1101111010101101101111101110111110111010101011011100000011011110 >
1`
b0000001111 c
1f
b0000001111 i
1l
b0000001111 o
1r
b0000001111 u
1x
b0000001111 {
1!"
b0000001111 $"
1'"
b0000001111 *"
1-"
b0000001111 0"
#190000000
0!
00
0`
0f
0l
0r
0x
0!"
0'"
0-"
#195000000
1!
0#
0$
1%
1&
1'
1(
1)
1*
1+
1,
b-------------------------------- -
b---------------------------------------------------------------- .
b---------------------------------------------------------------- /
10
02
03
b----------------------------- 4
15
16
17
18
19
1:
1;
1<
b---------------------------------------------------------------- =
b---------------------------------------------------------------- >
0?
0@
0A
0B
0C
0D
0E
0F
0G
0H
0I
0J
0K
0L
0M
0N
b-------- O
b-------- P
b-------- Q
b-------- R
b-------- S
b-------- T
b-------- U
b-------- V
1`
0a
0b
b---------- c
b-------- d
1f
0g
0h
b---------- i
b-------- j
1l
0m
0n
b---------- o
b-------- p
1r
0s
0t
b---------- u
b-------- v
1x
0y
0z
b---------- {
b-------- |
1!"
0""
0#"
b---------- $"
b-------- %"
1'"
0("
0)"
b---------- *"
b-------- +"
1-"
0."
0/"
b---------- 0"
b-------- 1"
#200000000
0!
00
0`
0f
0l
0r
0x
0!"
0'"
0-"
#205000000
1!
0"
10
01
1`
1f
1l
1r
1x
1!"
1'"
1-"
#210000000
0!
00
0`
0f
0l
0r
0x
0!"
0'"
0-"
#215000000
1!
10
1`
1f
1l
1r
1x
1!"
1'"
1-"
#220000000
0!
00
0`
0f
0l
0r
0x
0!"
0'"
0-"
#225000000
1!
1"
10
11
1`
1f
1l
1r
1x
1!"
1'"
1-"
#230000000
0!
00
0`
0f
0l
0r
0x
0!"
0'"
0-"
#235000000
1!
1#
1$
0,
b00000000000000000000000000000000 -
b1011101011011010011001100001111000010001001000100011001101000100 .
b1101111010101101101111101110111110111010101011011100000011011110 /
10
12
13
b00000000000000000000000000000 4
0<
b1011101011011010011001100001111000010001001000100011001101000100 =
b1101111010101101101111101110111110111010101011011100000011011110 >
1?
1@
b01000100 O
b00110011 P
b00100010 Q
b00010001 R
b00011110 S
b01100110 T
b11011010 U
b10111010 V
1`
1a
1b
b0000000000 c
b01000100 d
1f
b0000000000 i
b00110011 j
1l
b0000000000 o
b00100010 p
1r
b0000000000 u
b00010001 v
1x
b0000000000 {
b00011110 |
1!"
b0000000000 $"
b01100110 %"
1'"
b0000000000 *"
b11011010 +"
1-"
b0000000000 0"
b10111010 1"
#240000000
0!
00
0`
0f
0l
0r
0x
0!"
0'"
0-"
#245000000
1!
0+
1,
b00000000000000000000000000001000 -
b1101111010101101101111101110111110111010101011011100000001000100 /
10
b00000000000000000000000000001 4
0;
1<
b1101111010101101101111101110111110111010101011011100000001000100 >
0?
0@
1A
1B
b01000100 W
b1101111010101101101111101110111110111010101011011100000001000100 _
1`
0a
0b
b0000000001 c
b01000100 e
1f
1g
1h
b0000000001 i
1l
b0000000001 o
1r
b0000000001 u
1x
b0000000001 {
1!"
b0000000001 $"
1'"
b0000000001 *"
1-"
b0000000001 0"
#250000000
0!
00
0`
0f
0l
0r
0x
0!"
0'"
0-"
#255000000
1!
0*
1+
b00000000000000000000000000010000 -
b1101111010101101101111101110111110111010101011010011001101000100 /
10
b00000000000000000000000000010 4
0:
1;
b1101111010101101101111101110111110111010101011010011001101000100 >
0A
0B
1C
1D
b00110011 X
b1101111010101101101111101110111110111010101011010011001101000100 _
1`
b0000000010 c
1f
0g
0h
b0000000010 i
b00110011 k
1l
1m
1n
b0000000010 o
1r
b0000000010 u
1x
b0000000010 {
1!"
b0000000010 $"
1'"
b0000000010 *"
1-"
b0000000010 0"
#260000000
0!
00
0`
0f
0l
0r
0x
0!"
0'"
0-"
#265000000
1!
0)
1*
b00000000000000000000000000011000 -
b1101111010101101101111101110111110111010001000100011001101000100 /
10
b00000000000000000000000000011 4
09
1:
b1101111010101101101111101110111110111010001000100011001101000100 >
0C
0D
1E
1F
b00100010 Y
b1101111010101101101111101110111110111010001000100011001101000100 _
1`
b0000000011 c
1f
b0000000011 i
1l
0m
0n
b0000000011 o
b00100010 q
1r
1s
1t
b0000000011 u
1x
b0000000011 {
1!"
b0000000011 $"
1'"
b0000000011 *"
1-"
b0000000011 0"
#270000000
0!
00
0`
0f
0l
0r
0x
0!"
0'"
0-"
#275000000
1!
0(
1)
b00000000000000000000000000100000 -
b1101111010101101101111101110111100010001001000100011001101000100 /
10
b00000000000000000000000000100 4
08
19
b1101111010101101101111101110111100010001001000100011001101000100 >
0E
0F
1G
1H
b00010001 Z
b1101111010101101101111101110111100010001001000100011001101000100 _
1`
b0000000100 c
1f
b0000000100 i
1l
b0000000100 o
1r
0s
0t
b0000000100 u
b00010001 w
1x
1y
1z
b0000000100 {
1!"
b0000000100 $"
1'"
b0000000100 *"
1-"
b0000000100 0"
#280000000
0!
00
0`
0f
0l
0r
0x
0!"
0'"
0-"
#285000000
1!
0'
1(
b00000000000000000000000000101000 -
b1101111010101101101111100001111000010001001000100011001101000100 /
10
b00000000000000000000000000101 4
07
18
b1101111010101101101111100001111000010001001000100011001101000100 >
0G
0H
1I
1J
b00011110 [
b1101111010101101101111100001111000010001001000100011001101000100 _
1`
b0000000101 c
1f
b0000000101 i
1l
b0000000101 o
1r
b0000000101 u
1x
0y
0z
b0000000101 {
b00011110 }
1!"
1""
1#"
b0000000101 $"
1'"
b0000000101 *"
1-"
b0000000101 0"
#290000000
0!
00
0`
0f
0l
0r
0x
0!"
0'"
0-"
#295000000
1!
0&
1'
b00000000000000000000000000110000 -
b1101111010101101011001100001111000010001001000100011001101000100 /
10
b00000000000000000000000000110 4
06
17
b1101111010101101011001100001111000010001001000100011001101000100 >
0I
0J
1K
1L
b01100110 \
b1101111010101101011001100001111000010001001000100011001101000100 _
1`
b0000000110 c
1f
b0000000110 i
1l
b0000000110 o
1r
b0000000110 u
1x
b0000000110 {
1!"
0""
0#"
b0000000110 $"
b01100110 &"
1'"
1("
1)"
b0000000110 *"
1-"
b0000000110 0"
#300000000
0!
00
0`
0f
0l
0r
0x
0!"
0'"
0-"
#305000000
1!
0%
1&
b00000000000000000000000000111000 -
b1101111011011010011001100001111000010001001000100011001101000100 /
10
b00000000000000000000000000111 4
05
16
b1101111011011010011001100001111000010001001000100011001101000100 >
0K
0L
1M
1N
b11011010 ]
b1101111011011010011001100001111000010001001000100011001101000100 _
1`
b0000000111 c
1f
b0000000111 i
1l
b0000000111 o
1r
b0000000111 u
1x
b0000000111 {
1!"
b0000000111 $"
1'"
0("
0)"
b0000000111 *"
b11011010 ,"
1-"
1."
1/"
b0000000111 0"
#310000000
0!
00
0`
0f
0l
0r
0x
0!"
0'"
0-"
#315000000
1!
1%
b00000000000000000000000001000000 -
b1011101011011010011001100001111000010001001000100011001101000100 /
10
b00000000000000000000000001000 4
15
b1011101011011010011001100001111000010001001000100011001101000100 >
0M
0N
b10111010 ^
b1011101011011010011001100001111000010001001000100011001101000100 _
1`
b0000001000 c
1f
b0000001000 i
1l
b0000001000 o
1r
b0000001000 u
1x
b0000001000 {
1!"
b0000001000 $"
1'"
b0000001000 *"
1-"
0."
0/"
b0000001000 0"
b10111010 2"
#320000000
0!
00
0`
0f
0l
0r
0x
0!"
0'"
0-"
#325000000
1!
b00000000000000000000000001001000 -
10
b00000000000000000000000001001 4
b1011101011011010011001100001111000010001001000100011001101000100 >
1`
b0000001001 c
1f
b0000001001 i
1l
b0000001001 o
1r
b0000001001 u
1x
b0000001001 {
1!"
b0000001001 $"
1'"
b0000001001 *"
1-"
b0000001001 0"
#330000000
0!
00
0`
0f
0l
0r
0x
0!"
0'"
0-"
#335000000
1!
0#
0$
b-------------------------------- -
b---------------------------------------------------------------- .
b---------------------------------------------------------------- /
10
02
03
b----------------------------- 4
b---------------------------------------------------------------- =
b---------------------------------------------------------------- >
b-------- O
b-------- P
b-------- Q
b-------- R
b-------- S
b-------- T
b-------- U
b-------- V
1`
b---------- c
b-------- d
1f
b---------- i
b-------- j
1l
b---------- o
b-------- p
1r
b---------- u
b-------- v
1x
b---------- {
b-------- |
1!"
b---------- $"
b-------- %"
1'"
b---------- *"
b-------- +"
1-"
b---------- 0"
b-------- 1"
#340000000
0!
00
0`
0f
0l
0r
0x
0!"
0'"
0-"
#345000000
1!
0"
10
01
1`
1f
1l
1r
1x
1!"
1'"
1-"
#350000000
0!
00
0`
0f
0l
0r
0x
0!"
0'"
0-"
#355000000
1!
10
1`
1f
1l
1r
1x
1!"
1'"
1-"
#360000000
0!
00
0`
0f
0l
0r
0x
0!"
0'"
0-"
#365000000
1!
1"
10
11
1`
1f
1l
1r
1x
1!"
1'"
1-"
#370000000
0!
00
0`
0f
0l
0r
0x
0!"
0'"
0-"
#375000000
1!
1#
1$
0+
0,
b00000000000000000000000000000000 -
b0100101100011101000011010000011011110000000011011100101011111110 .
b1011101011011010011001100001111000010001001000100011001101000100 /
10
12
13
b00000000000000000000000000000 4
0;
0<
b0100101100011101000011010000011011110000000011011100101011111110 =
b1011101011011010011001100001111000010001001000100011001101000100 >
1?
1@
1A
1B
b11111110 O
b11001010 P
b00001101 Q
b11110000 R
b00000110 S
b00001101 T
b00011101 U
b01001011 V
1`
1a
1b
b0000000000 c
b11111110 d
1f
1g
1h
b0000000000 i
b11001010 j
1l
b0000000000 o
b00001101 p
1r
b0000000000 u
b11110000 v
1x
b0000000000 {
b00000110 |
1!"
b0000000000 $"
b00001101 %"
1'"
b0000000000 *"
b00011101 +"
1-"
b0000000000 0"
b01001011 1"
#380000000
0!
00
0`
0f
0l
0r
0x
0!"
0'"
0-"
#385000000
1!
0)
0*
1+
1,
b00000000000000000000000000001000 -
b1011101011011010011001100001111000010001001000101100101011111110 /
10
b00000000000000000000000000001 4
09
0:
1;
1<
b1011101011011010011001100001111000010001001000101100101011111110 >
0?
0@
0A
0B
1C
1D
1E
1F
b11111110 W
b11001010 X
b1011101011011010011001100001111000010001001000101100101011111110 _
1`
0a
0b
b0000000001 c
b11111110 e
1f
0g
0h
b0000000001 i
b11001010 k
1l
1m
1n
b0000000001 o
1r
1s
1t
b0000000001 u
1x
b0000000001 {
1!"
b0000000001 $"
1'"
b0000000001 *"
1-"
b0000000001 0"
#390000000
0!
00
0`
0f
0l
0r
0x
0!"
0'"
0-"
#395000000
1!
0'
0(
1)
1*
b00000000000000000000000000010000 -
b1011101011011010011001100001111011110000000011011100101011111110 /
10
b00000000000000000000000000010 4
07
08
19
1:
b1011101011011010011001100001111011110000000011011100101011111110 >
0C
0D
0E
0F
1G
1H
1I
1J
b00001101 Y
b11110000 Z
b1011101011011010011001100001111011110000000011011100101011111110 _
1`
b0000000010 c
1f
b0000000010 i
1l
0m
0n
b0000000010 o
b00001101 q
1r
0s
0t
b0000000010 u
b11110000 w
1x
1y
1z
b0000000010 {
1!"
1""
1#"
b0000000010 $"
1'"
b0000000010 *"
1-"
b0000000010 0"
#400000000
0!
00
0`
0f
0l
0r
0x
0!"
0'"
0-"
#405000000
1!
0%
0&
1'
1(
b00000000000000000000000000011000 -
b1011101011011010000011010000011011110000000011011100101011111110 /
10
b00000000000000000000000000011 4
05
06
17
18
b1011101011011010000011010000011011110000000011011100101011111110 >
0G
0H
0I
0J
1K
1L
1M
1N
b00000110 [
b00001101 \
b1011101011011010000011010000011011110000000011011100101011111110 _
1`
b0000000011 c
1f
b0000000011 i
1l
b0000000011 o
1r
b0000000011 u
1x
0y
0z
b0000000011 {
b00000110 }
1!"
0""
0#"
b0000000011 $"
b00001101 &"
1'"
1("
1)"
b0000000011 *"
1-"
1."
1/"
b0000000011 0"
#410000000
0!
00
0`
0f
0l
0r
0x
0!"
0'"
0-"
#415000000
1!
1%
1&
b00000000000000000000000000100000 -
b0100101100011101000011010000011011110000000011011100101011111110 /
10
b00000000000000000000000000100 4
15
16
b0100101100011101000011010000011011110000000011011100101011111110 >
0K
0L
0M
0N
b00011101 ]
b01001011 ^
b0100101100011101000011010000011011110000000011011100101011111110 _
1`
b0000000100 c
1f
b0000000100 i
1l
b0000000100 o
1r
b0000000100 u
1x
b0000000100 {
1!"
b0000000100 $"
1'"
0("
0)"
b0000000100 *"
b00011101 ,"
1-"
0."
0/"
b0000000100 0"
b01001011 2"
#420000000
0!
00
0`
0f
0l
0r
0x
0!"
0'"
0-"
#425000000
1!
b00000000000000000000000000101000 -
10
b00000000000000000000000000101 4
b0100101100011101000011010000011011110000000011011100101011111110 >
1`
b0000000101 c
1f
b0000000101 i
1l
b0000000101 o
1r
b0000000101 u
1x
b0000000101 {
1!"
b0000000101 $"
1'"
b0000000101 *"
1-"
b0000000101 0"
#430000000
0!
00
0`
0f
0l
0r
0x
0!"
0'"
0-"
#435000000
1!
0#
0$
b-------------------------------- -
b---------------------------------------------------------------- .
b---------------------------------------------------------------- /
10
02
03
b----------------------------- 4
b---------------------------------------------------------------- =
b---------------------------------------------------------------- >
b-------- O
b-------- P
b-------- Q
b-------- R
b-------- S
b-------- T
b-------- U
b-------- V
1`
b---------- c
b-------- d
1f
b---------- i
b-------- j
1l
b---------- o
b-------- p
1r
b---------- u
b-------- v
1x
b---------- {
b-------- |
1!"
b---------- $"
b-------- %"
1'"
b---------- *"
b-------- +"
1-"
b---------- 0"
b-------- 1"
#440000000
0!
00
0`
0f
0l
0r
0x
0!"
0'"
0-"
#445000000
1!
0"
10
01
1`
1f
1l
1r
1x
1!"
1'"
1-"
#450000000
0!
00
0`
0f
0l
0r
0x
0!"
0'"
0-"
#455000000
1!
10
1`
1f
1l
1r
1x
1!"
1'"
1-"
#460000000
0!
00
0`
0f
0l
0r
0x
0!"
0'"
0-"
#465000000
1!
1"
10
11
1`
1f
1l
1r
1x
1!"
1'"
1-"
#470000000
0!
00
0`
0f
0l
0r
0x
0!"
0'"
0-"
#475000000
1!
1#
1$
0)
0*
0+
0,
b00000000000000000000000000000000 -
b1011000000000000000000000000000000000000000000001101111010101101 .
b0100101100011101000011010000011011110000000011011100101011111110 /
10
12
13
b00000000000000000000000000000 4
09
0:
0;
0<
b1011000000000000000000000000000000000000000000001101111010101101 =
b0100101100011101000011010000011011110000000011011100101011111110 >
1?
1@
1A
1B
1C
1D
1E
1F
b10101101 O
b11011110 P
b00000000 Q
b00000000 R
b00000000 S
b00000000 T
b00000000 U
b10110000 V
1`
1a
1b
b0000000000 c
b10101101 d
1f
1g
1h
b0000000000 i
b11011110 j
1l
1m
1n
b0000000000 o
b00000000 p
1r
1s
1t
b0000000000 u
b00000000 v
1x
b0000000000 {
b00000000 |
1!"
b0000000000 $"
b00000000 %"
1'"
b0000000000 *"
b00000000 +"
1-"
b0000000000 0"
b10110000 1"
#480000000
0!
00
0`
0f
0l
0r
0x
0!"
0'"
0-"
#485000000
1!
0%
0&
0'
0(
1)
1*
1+
1,
b00000000000000000000000000001000 -
b0100101100011101000011010000011000000000000000001101111010101101 /
10
b00000000000000000000000000001 4
05
06
07
08
19
1:
1;
1<
b0100101100011101000011010000011000000000000000001101111010101101 >
0?
0@
0A
0B
0C
0D
0E
0F
1G
1H
1I
1J
1K
1L
1M
1N
b10101101 W
b11011110 X
b00000000 Y
b00000000 Z
b0100101100011101000011010000011000000000000000001101111010101101 _
1`
0a
0b
b0000000001 c
b10101101 e
1f
0g
0h
b0000000001 i
b11011110 k
1l
0m
0n
b0000000001 o
b00000000 q
1r
0s
0t
b0000000001 u
b00000000 w
1x
1y
1z
b0000000001 {
1!"
1""
1#"
b0000000001 $"
1'"
1("
1)"
b0000000001 *"
1-"
1."
1/"
b0000000001 0"
#490000000
0!
00
0`
0f
0l
0r
0x
0!"
0'"
0-"
#495000000
1!
1%
1&
1'
1(
b00000000000000000000000000010000 -
b1011000000000000000000000000000000000000000000001101111010101101 /
10
b00000000000000000000000000010 4
15
16
17
18
b1011000000000000000000000000000000000000000000001101111010101101 >
0G
0H
0I
0J
0K
0L
0M
0N
b00000000 [
b00000000 \
b00000000 ]
b10110000 ^
b1011000000000000000000000000000000000000000000001101111010101101 _
1`
b0000000010 c
1f
b0000000010 i
1l
b0000000010 o
1r
b0000000010 u
1x
0y
0z
b0000000010 {
b00000000 }
1!"
0""
0#"
b0000000010 $"
b00000000 &"
1'"
0("
0)"
b0000000010 *"
b00000000 ,"
1-"
0."
0/"
b0000000010 0"
b10110000 2"
#500000000
0!
00
0`
0f
0l
0r
0x
0!"
0'"
0-"
